Wstęp do pakietu ‘imgw’ (PL) • imgw
…
Kolumna idex zawiera informację o rodzaju ekstremum, tj. 1 oznacza minimum, 2 średnią, 3 maximum.1.

Rozważania hydrologiczne często koncentrują się na analizie jednej grupy zjawisk, np. związanych z przepływami maksymalnymi. W tym celu pozostawimy w naszym zbiorze tylko wartości przepływów maksymalnych oraz kolumny zawierające interesujące nas informacje, tj. identyfikator stacji - id, rok hydrologiczny - hyy, szerokość geograficzną - X oraz długość geograficzną - Y.

Następnie obliczmy średni przepływ maksymalny na każdej z dostępnych stacji, w każdym z analizowanych lat hydrologicznych. W tym celu wykorzystać można funkcję summarise() z pakietu dplyr. Zmiana postaci otrzymanej tabeli (z wąskiej do szerokiej) może zostać wykonana za pomocą pakietu tidyr i funkcji spread().

h %>%
  filter(idex == 3) %>%
  select(id, X, Y, hyy, Q, mm) %>%
  group_by(hyy, id, X, Y) %>%
  summarise(srednie_roczne_Q = mean(Q, na.rm = TRUE)) %>%
  spread(hyy, srednie_roczne_Q)
#> # A tibble: 873 x 13
#> # Groups:   id, X [873]
#>        id     X     Y `2001` `2002` `2003` `2004` `2005` `2006`  `2007`
#>     <dbl> <dbl> <dbl>  <dbl>  <dbl>  <dbl>  <dbl>  <dbl>  <dbl>   <dbl>
#>  1 1.49e8  NA    NA   201.   147.    87.9  109.   171.   227.   153.   
#>  2 1.49e8  18.3  49.9 175.    96.7   57.6   91.8  147.   171.   110.   
#>  3 1.49e8  18.4  49.9  NA     NA     NA     NA     NA     NA     NA    
#>  4 1.49e8  18.5  49.9   4.46   2.01   1.70   1.67   2.55   3.27   2.14 
#>  5 1.49e8  NA    NA    13.5    7.9    3.80   5.01  10.4    6.48   5.85 
#>  6 1.49e8  NA    NA    57.2   57.7   29.8   26.8   65.4   60.7   54.7  
#>  7 1.49e8  18.6  49.7 NaN    NaN    NaN    NaN    NaN    NaN      0.564
#>  8 1.49e8  18.8  49.8  42.4   50.5   19.5   21.6   33.1   36.0   39.5  
#>  9 1.49e8  18.8  49.7  16.7   17.8    5.82   6.30  10.2   13.3   18.4  
#> 10 1.49e8  18.9  49.8  10.6   15.2    5.03   6.08 NaN      9.81  12.2  
#> # … with 863 more rows, and 3 more variables: `2008` <dbl>, `2009` <dbl>,
#> #   `2010` <dbl>
…
