Introduction to imgw • imgw
…
idex depending on the value means 1 minimum 2 mean 3 maximum you can find information about this in hydro_abber dataset. Hydrologist often use the maximum value so we will filter the data next select id station, hydrological year(hyy), latitudeX and longitudeY, next calculate the mean maximum value of flow on the stations in particular year with dplyr and then spread data by year using tidyr to get the run of annual mean of maximum flow in next columns.

h%>%
  filter(idex==3)%>%
  select(id,X,Y,hyy,Q,mm)%>%
  group_by(hyy,id,X,Y)%>%
  summarise(annual_mean_Q=round(mean(Q,na.rm = T),2))%>%
  spread(hyy,annual_mean_Q)
#> # A tibble: 873 x 13
#> # Groups:   id, X [873]
#>        id     X     Y `2001` `2002` `2003` `2004` `2005` `2006` `2007`
#>     <dbl> <dbl> <dbl>  <dbl>  <dbl>  <dbl>  <dbl>  <dbl>  <dbl>  <dbl>
#>  1 1.49e8  NA    NA   201.   147.    87.9  109.   171.   227.   153.  
#>  2 1.49e8  18.3  49.9 175.    96.7   57.6   91.8  147.   171.   110.  
#>  3 1.49e8  18.4  49.9  NA     NA     NA     NA     NA     NA     NA   
#>  4 1.49e8  18.5  49.9   4.46   2.01   1.7    1.67   2.55   3.27   2.14
#>  5 1.49e8  NA    NA    13.5    7.9    3.8    5.01  10.4    6.48   5.85
#>  6 1.49e8  NA    NA    57.2   57.7   29.8   26.8   65.4   60.7   54.6 
#>  7 1.49e8  18.6  49.7 NaN    NaN    NaN    NaN    NaN    NaN      0.56
#>  8 1.49e8  18.8  49.8  42.4   50.5   19.5   21.6   33.1   36.0   39.6 
#>  9 1.49e8  18.8  49.7  16.7   17.8    5.82   6.3   10.2   13.3   18.4 
#> 10 1.49e8  18.9  49.8  10.6   15.2    5.03   6.08 NaN      9.81  12.2 
#> # … with 863 more rows, and 3 more variables: `2008` <dbl>, `2009` <dbl>,
#> #   `2010` <dbl>
…
